<?xml version="1.0" encoding="utf-8"?>
<!-- Generator: Adobe Illustrator 21.0.0, SVG Export Plug-In . SVG Version: 6.00 Build 0)  -->
<svg version="1.1" id="Layer_1" xmlns="http://www.w3.org/2000/svg" xmlns:xlink="http://www.w3.org/1999/xlink" x="0px" y="0px"
	 viewBox="0 0 24 24" style="enable-background:new 0 0 24 24;" xml:space="preserve">
<title>ic_broken_image_48px</title>
<path d="M21,5v6.6l-3-3l-4,4l-4-4l-4,4l-3-3V5c0-1.1,0.9-2,2-2h14C20.1,3,21,3.9,21,5z M18,11.4l3,3V19c0,1.1-0.9,2-2,2H5
	c-1.1,0-2-0.9-2-2v-6.6l3,3l4-4l4,4L18,11.4z"/>
</svg>
