<?xml version="1.0" encoding="utf-8"?>
<!-- Generator: Adobe Illustrator 21.0.0, SVG Export Plug-In . SVG Version: 6.00 Build 0)  -->
<svg version="1.1" id="Layer_1" xmlns="http://www.w3.org/2000/svg" xmlns:xlink="http://www.w3.org/1999/xlink" x="0px" y="0px"
	 viewBox="0 0 24 24" style="enable-background:new 0 0 24 24;" xml:space="preserve">
<g>
	<path d="M18.1,18.6c-0.7,0-1.5,0.7-1.5,1.5c0,0.8,0.7,1.5,1.5,1.5c0.8,0,1.5-0.7,1.5-1.5C19.6,19.3,18.9,18.6,18.1,18.6z"/>
	<path d="M8.9,18.6c-0.8,0-1.5,0.8-1.5,1.6s0.7,1.4,1.5,1.4c0.8,0,1.5-0.7,1.5-1.5C10.4,19.3,9.7,18.6,8.9,18.6z"/>
	<path d="M22.1,6c-0.1-0.2-0.4-0.3-0.6-0.3h-16L4.8,2.6c0-0.3-0.4-0.5-0.6-0.5H2c-0.3,0-0.7,0.3-0.7,0.7c0,0.4,0.2,0.7,0.7,0.7h1.6
		l1.9,8.1c0.9,3.4,3.9,5.8,7.6,5.8h4.1c0.4,0,0.7-0.3,0.7-0.7c0-0.4-0.4-0.7-0.9-0.7h-4.1c-1.7,0-3.3-0.7-4.5-1.9
		c0.6,0.2,1.2,0.3,1.8,0.3h5.4c2.1,0,3.9-1.3,4.7-3.1l1.9-4.6C22.3,6.4,22.2,6.2,22.1,6z"/>
</g>
</svg>
