<?xml version="1.0" encoding="utf-8"?>
<!-- Generator: Adobe Illustrator 21.0.0, SVG Export Plug-In . SVG Version: 6.00 Build 0)  -->
<svg version="1.1" id="Layer_1" xmlns="http://www.w3.org/2000/svg" xmlns:xlink="http://www.w3.org/1999/xlink" x="0px" y="0px"
	 viewBox="0 0 24 24" style="enable-background:new 0 0 24 24;" xml:space="preserve">
<path d="M12.1,14.1c-0.3,0-0.6-0.1-0.8-0.2l-8-5.2l0.5-0.8l8,5.2c0.2,0.1,0.4,0.1,0.5,0l7.9-5.2l0.5,0.8l-7.9,5.2
	C12.6,14,12.3,14.1,12.1,14.1z M21,7.6v8.8c0,1.2-0.9,2.1-2.1,2.1H5.1c-1.2,0-2.1-0.9-2.1-2.1V7.6c0-1.2,0.9-2.1,2.1-2.1h13.8
	C20.1,5.5,21,6.4,21,7.6z M20,7.6c0-0.6-0.5-1.1-1.1-1.1H5.1C4.5,6.5,4,7,4,7.6v8.8c0,0.6,0.5,1.1,1.1,1.1h13.8
	c0.6,0,1.1-0.5,1.1-1.1V7.6z"/>
</svg>
