<?xml version="1.0" encoding="utf-8"?>
<!-- Generator: Adobe Illustrator 21.0.0, SVG Export Plug-In . SVG Version: 6.00 Build 0)  -->
<svg version="1.1" id="Layer_1" xmlns="http://www.w3.org/2000/svg" xmlns:xlink="http://www.w3.org/1999/xlink" x="0px" y="0px"
	 viewBox="0 0 24 24" style="enable-background:new 0 0 24 24;" xml:space="preserve">
<g transform="translate(-1.25 -2)">
	<path d="M13.2,4c-5.6,0-10,4.4-10,10s4.4,10,10,10s10-4.4,10-10S18.8,4,13.2,4z M13.2,22.5c-4.7,0-8.5-3.8-8.5-8.5s3.8-8.5,8.5-8.5
		s8.5,3.8,8.5,8.5S17.9,22.5,13.2,22.5z"/>
	<path d="M17.6,9.2l-6,2.6c-0.2,0.1-0.3,0.2-0.3,0.3l-2.8,6.4c0,0,0,0.1,0,0.2c0.1,0.1,0.3,0.2,0.4,0.1l6.4-2.8
		c0.1-0.1,0.2-0.2,0.2-0.3L18,9.6c0-0.1,0-0.1,0-0.2C17.9,9.2,17.7,9.1,17.6,9.2z M13.5,15.2c-0.7,0-1.2-0.5-1.2-1.2
		s0.5-1.2,1.2-1.2s1.2,0.5,1.2,1.2S14.2,15.2,13.5,15.2z"/>
</g>
</svg>
