<?xml version="1.0" encoding="utf-8"?>
<!-- Generator: Adobe Illustrator 21.0.0, SVG Export Plug-In . SVG Version: 6.00 Build 0)  -->
<svg version="1.1" id="Layer_1" xmlns="http://www.w3.org/2000/svg" xmlns:xlink="http://www.w3.org/1999/xlink" x="0px" y="0px"
	 viewBox="0 0 24 24" style="enable-background:new 0 0 24 24;" xml:space="preserve">
<path transform="rotate(90 2 2)" d="M5-10c1.1,0,2,0.9,2,2S6.1-6,5-6S3-6.9,3-8S3.9-10,5-10z M12-10c1.1,0,2,0.9,2,2s-0.9,2-2,2
	s-2-0.9-2-2S10.9-10,12-10z M19-10c1.1,0,2,0.9,2,2s-0.9,2-2,2c-1.1,0-2-0.9-2-2S17.9-10,19-10z"/>
</svg>
