<?xml version="1.0" encoding="utf-8"?>
<!-- Generator: Adobe Illustrator 21.0.0, SVG Export Plug-In . SVG Version: 6.00 Build 0)  -->
<svg version="1.1" id="Layer_1" xmlns="http://www.w3.org/2000/svg" xmlns:xlink="http://www.w3.org/1999/xlink" x="0px" y="0px"
	 viewBox="0 0 24 24" style="enable-background:new 0 0 24 24;" xml:space="preserve">
<path d="M8.6,14.7c-2.1,0-3.7-1.7-3.7-3.7s1.7-3.7,3.7-3.7s3.7,1.7,3.7,3.7S10.7,14.7,8.6,14.7z M8.6,8.1C7,8.1,5.7,9.4,5.7,11
	s1.3,2.9,2.9,2.9s2.9-1.3,2.9-2.9S10.2,8.1,8.6,8.1z"/>
<g>
	<path d="M3.3,20.1l-1-0.3c0.7-2.4,2.7-4.1,5-4.1h2.2c2.3,0,4.3,1.6,5,4.1l-1,0.3c-0.6-2-2.2-3.4-4.1-3.4H7.4
		C5.6,16.7,3.9,18.1,3.3,20.1z"/>
</g>
<path d="M17.3,9.8c-1.6,0-2.9-1.3-2.9-2.9S15.7,4,17.3,4s2.9,1.3,2.9,2.9S18.9,9.8,17.3,9.8z M17.3,4.7c-1.2,0-2.3,1-2.3,2.3
	s1,2.3,2.3,2.3c1.2,0,2.3-1,2.3-2.3S18.5,4.7,17.3,4.7z"/>
<g>
	<path d="M13.2,14l-0.7-0.2c0.6-1.9,2.1-3.2,3.9-3.2h1.8c1.8,0,3.3,1.3,3.9,3.2L21.3,14c-0.5-1.6-1.7-2.6-3.2-2.6h-1.8
		C15,11.4,13.7,12.4,13.2,14z"/>
</g>
</svg>
