<?xml version="1.0" encoding="utf-8"?>
<!-- Generator: Adobe Illustrator 21.0.0, SVG Export Plug-In . SVG Version: 6.00 Build 0)  -->
<svg version="1.1" id="Layer_1" xmlns="http://www.w3.org/2000/svg" xmlns:xlink="http://www.w3.org/1999/xlink" x="0px" y="0px"
	 viewBox="0 0 24 24" style="enable-background:new 0 0 24 24;" xml:space="preserve">
<path d="M12,13c-2.5,0-4.5-2-4.5-4.5S9.5,4,12,4s4.5,2,4.5,4.5S14.5,13,12,13z M12,5c-1.9,0-3.5,1.6-3.5,3.5S10.1,12,12,12
	s3.5-1.6,3.5-3.5S13.9,5,12,5z"/>
<g>
	<path d="M5.7,19.4l-1.2-0.3c0.9-2.9,3.3-4.9,6-4.9h2.7c2.7,0,5.2,2,6,4.9l-1.2,0.3c-0.7-2.4-2.7-4-4.9-4h-2.7
		C8.4,15.4,6.4,17,5.7,19.4z"/>
</g>
</svg>
